Example Oyster
…
## Joining, by = "word"

hn_word_tokens_no_stop_stem <- hn_word_tokens_no_stop %>%
  mutate(word = char_wordstem(word),
         length_word = str_length(word)) %>%
  filter(length_word != 1) %>%
  select(-length_word)

# create word counts
hn_word_counts <- hn_word_tokens_no_stop_stem %>% count(word, sort = T)

# print top 10 most frequent words
hn_word_counts %>% head(50)

## # A tibble: 50 x 2
##    word            n
##    <chr>       <int>
##  1 oshv          498
##  2 oyster        497
##  3 mortal        285
##  4 infect        274
##  5 virus         214
##  6 giga          203
##  7 detect        172
##  8 viral         166
##  9 herpesvirus   154
## 10 use           142
## # … with 40 more rows
…
